{
	"_id": "1",
	"firstName": "Jovrey",
	"lastName": "Billones",
	"email": "jovrey@email.com",
	"password": "jovreycoffee",
	"isAdmin": false,
	"mobileNumber": "09959722291"
}
{
	"_id": "2",
	"firstName": "Lui",
	"lastName": "Oja",
	"email": "lui@email.com",
	"password": "luicoffee",
	"isAdmin": false,
	"mobileNumber": "09959722292"
}